<svg xmlns="http://www.w3.org/2000/svg" viewBox="6618 217 120 120">
  <defs>
    <style>
      .cls-1 {
        opacity: 0.04;
      }

      .cls-2 {
        fill: none;
      }

      .cls-3 {
        fill: #00aa4a;
        fill-rule: evenodd;
      }
    </style>
  </defs>
  <g id="ic_candidates_faded" class="cls-1" transform="translate(6618.5 217)">
    <rect id="Rectangle_4" data-name="Rectangle 4" class="cls-2" width="120" height="120" transform="translate(-0.5)"/>
    <path id="Path_20" data-name="Path 20" class="cls-3" d="M33.691,4a13.148,13.148,0,0,0-10.316,6.72A22.44,22.44,0,0,0,19.288,23a23.854,23.854,0,0,0,3.09,13.249,50.411,50.411,0,0,0,5.25,15.533c-6.263,3-13.463,5.362-17.948,9.217A21.169,21.169,0,0,0,2,76V91a3.056,3.056,0,0,0,2.88,3H77.87a3.056,3.056,0,0,0,2.88-3V76a21.169,21.169,0,0,0-7.684-15,67.8,67.8,0,0,0-17.977-9.218,50.625,50.625,0,0,0,5.25-15.469A22.02,22.02,0,0,0,63.459,23a18.679,18.679,0,0,0-3.54-11.936l-.03-.03A10.612,10.612,0,0,0,51.969,7a11.783,11.783,0,0,0-5.554,1.564A20.689,20.689,0,0,0,33.691,4Zm0,6a13.226,13.226,0,0,1,10.654,4.282,2.865,2.865,0,0,0,3.33.281A11.033,11.033,0,0,1,51.909,13a5.816,5.816,0,0,1,3.57,1.9l.03.03A12.709,12.709,0,0,1,57.7,23c0,.33-.03.533-.03.844a11.925,11.925,0,0,0-3.12-3.311,2.861,2.861,0,0,0-3.27-.03A14.771,14.771,0,0,1,43.4,23.969C37.711,23.522,34.55,21,29.87,21a5.381,5.381,0,0,0-3.533,1.376,6.915,6.915,0,0,0-1.17,1.811c0-.4-.12-.78-.12-1.189a17.52,17.52,0,0,1,3.03-8.813A8.43,8.43,0,0,1,33.7,10h0Zm18.7,16.687a16.455,16.455,0,0,1,2.34,8A42.821,42.821,0,0,1,49.1,50.5,9.964,9.964,0,0,1,41.375,56a9.982,9.982,0,0,1-7.714-5.5,42.75,42.75,0,0,1-5.625-15.656,59.919,59.919,0,0,1,1.23-5.936,10.784,10.784,0,0,1,.375-1.095s.022,0,.03-.03a4.245,4.245,0,0,1,.24-.5v-.03a1.125,1.125,0,0,1,.15-.187,8.76,8.76,0,0,1,1.875.439A59.644,59.644,0,0,0,38.39,29.35a18.334,18.334,0,0,0,6.964.439,22.875,22.875,0,0,0,7.024-3.094h0ZM31.111,56.751a17.966,17.966,0,0,0,3.99,3.405L29.431,88H7.764V76a16.807,16.807,0,0,1,4.8-10,115.125,115.125,0,0,1,18.548-9.248Zm20.528,0C57.264,60.3,65.442,61.386,70.186,66a16.808,16.808,0,0,1,4.8,10V88H53.319L47.645,60.126a17.752,17.752,0,0,0,3.994-3.375ZM40.655,61.878c.247,0,.473.124.72.124s.473-.109.72-.124L47.409,88H35.341Z" transform="translate(20 11)"/>
  </g>
</svg>
