<svg xmlns="http://www.w3.org/2000/svg" viewBox="692 633 32 32">
  <defs>
    <style>
      .cls-1 {
        fill: none;
      }

      .cls-2 {
        fill: #ccd1d9;
        fill-rule: evenodd;
      }
    </style>
  </defs>
  <g id="ic_training_center" transform="translate(692.5 633)">
    <path id="Path_21" data-name="Path 21" class="cls-2" d="M11.138,23.819a.919.919,0,0,0,1.1,0c.29-.212,7.09-5.271,7.09-11.819a7.834,7.834,0,0,0-7.637-8,7.834,7.834,0,0,0-7.637,8C4.048,18.548,10.849,23.607,11.138,23.819ZM11.685,6a5.875,5.875,0,0,1,5.728,6c0,4.522-4.2,8.459-5.728,9.742C10.157,20.459,5.958,16.522,5.958,12a5.876,5.876,0,0,1,5.727-6Zm2.864,6a2.938,2.938,0,0,0-2.864-3,2.938,2.938,0,0,0-2.864,3,2.938,2.938,0,0,0,2.864,3,2.938,2.938,0,0,0,2.864-3ZM10.73,12a.956.956,0,1,1,.955,1,.979.979,0,0,1-.954-1ZM22.07,26.521l-2.864-5.5a.95.95,0,0,0-.838-.521h-.955a1,1,0,0,0,0,2H17.8L19.624,26H3.747L5.57,22.5h.387a1,1,0,0,0,0-2H5a.949.949,0,0,0-.838.521L1.3,26.521a1.042,1.042,0,0,0,.017.989.947.947,0,0,0,.821.49H21.232a.946.946,0,0,0,.821-.49A1.041,1.041,0,0,0,22.07,26.521Z" transform="translate(3.5)"/>
  </g>
</svg>