<svg xmlns="http://www.w3.org/2000/svg" viewBox="7132 217 120 120">
  <defs>
    <style>
      .cls-1 {
        opacity: 0.04;
      }

      .cls-2 {
        fill: none;
      }

      .cls-3 {
        fill: #3075ba;
        fill-rule: evenodd;
      }
    </style>
  </defs>
  <g id="ic_training_center_faded" class="cls-1" transform="translate(7132.5 217)">
    <rect id="Rectangle_5" data-name="Rectangle 5" class="cls-2" width="120" height="120" transform="translate(-0.5)"/>
    <path id="Path_21" data-name="Path 21" class="cls-3" d="M38.513,78.321a3.446,3.446,0,0,0,4.106,0c1.087-.8,26.587-19.766,26.587-44.321A29.377,29.377,0,0,0,40.568,4,29.377,29.377,0,0,0,11.929,34C11.925,58.555,37.429,77.526,38.513,78.321ZM40.564,11.5A22.031,22.031,0,0,1,62.044,34c0,16.957-15.75,31.721-21.48,36.532C34.834,65.721,19.088,50.957,19.088,34A22.035,22.035,0,0,1,40.564,11.5ZM51.3,34a11.017,11.017,0,0,0-10.74-11.25A11.018,11.018,0,0,0,29.824,34a11.018,11.018,0,0,0,10.74,11.25A11.018,11.018,0,0,0,51.3,34ZM36.983,34a3.585,3.585,0,1,1,3.581,3.75A3.671,3.671,0,0,1,36.987,34ZM79.508,88.454,68.768,67.829a3.563,3.563,0,0,0-3.143-1.954H62.044a3.75,3.75,0,0,0,0,7.5H63.5L70.335,86.5H10.8l6.836-13.125h1.451a3.75,3.75,0,1,0,0-7.5H15.5a3.559,3.559,0,0,0-3.142,1.954L1.62,88.454a3.907,3.907,0,0,0,.064,3.709A3.551,3.551,0,0,0,4.763,94h71.6a3.547,3.547,0,0,0,3.079-1.837A3.9,3.9,0,0,0,79.508,88.454Z" transform="translate(17.755 11)"/>
  </g>
</svg>
